"","x"
"1",3
"2",1
"3",3
"4",3
"5",1
"6",1
"7",2
"8",3
"9",2
"10",1
"11",1
"12",3
"13",3
"14",1
"15",1
"16",2
"17",2
"18",1
"19",1
"20",1
"21",1
"22",1
"23",3
"24",2
"25",3
"26",3
"27",1
"28",3
"29",3
"30",2
"31",1
"32",2
"33",1
"34",1
"35",1
"36",3
"37",1
"38",1
"39",1
"40",3
"41",1
"42",1
"43",1
"44",2
"45",1
"46",2
"47",1
"48",1
"49",1
"50",1
"51",1
"52",1
"53",1
"54",1
"55",3
"56",3
"57",2
"58",3
"59",3
"60",1
"61",1
"62",1
"63",2
"64",1
"65",1
"66",2
"67",1
"68",1
"69",1
"70",1
"71",3
"72",3
"73",1
"74",1
"75",1
"76",3
"77",1
"78",3
"79",1
"80",2
"81",1
"82",1
"83",1
"84",3
"85",1
"86",3
"87",2
"88",1
"89",1
"90",2
"91",3
"92",3
"93",2
"94",1
"95",3
"96",3
"97",1
"98",3
"99",3
"100",3
"101",3
"102",1
"103",3
"104",3
"105",2
"106",1
"107",3
"108",2
"109",1
"110",2
"111",2
"112",1
"113",1
"114",3
"115",2
"116",2
"117",3
"118",1
"119",3
"120",3
"121",2
"122",1
"123",3
"124",2
"125",1
"126",2
"127",1
"128",1
"129",2
"130",1
"131",1
"132",1
"133",3
"134",2
"135",1
"136",3
"137",2
"138",3
"139",3
"140",1
"141",1
"142",1
"143",2
"144",3
"145",1
"146",1
"147",1
"148",3
"149",1
"150",3
"151",1
"152",3
"153",2
"154",2
"155",1
"156",1
"157",3
"158",1
"159",1
"160",3
"161",1
"162",3
"163",2
"164",2
"165",1
"166",2
"167",2
"168",2
"169",2
"170",1
"171",3
"172",1
"173",2
"174",1
"175",1
"176",2
"177",1
"178",1
"179",3
"180",1
"181",3
"182",3
"183",1
"184",2
"185",1
"186",2
"187",1
"188",2
"189",1
"190",2
"191",3
"192",2
"193",1
"194",3
"195",1
"196",3
"197",3
"198",3
"199",3
"200",3
"201",1
"202",1
"203",2
"204",1
"205",1
"206",1
"207",1
"208",1
"209",3
"210",3
"211",1
"212",2
"213",1
"214",1
"215",3
"216",3
"217",1
"218",1
"219",2
"220",2
"221",1
"222",1
"223",1
"224",1
"225",3
"226",3
"227",1
"228",3
"229",3
"230",1
"231",2
"232",3
"233",2
"234",2
"235",1
"236",1
"237",1
"238",2
"239",2
"240",2
"241",3
"242",3
"243",1
"244",1
"245",1
"246",1
"247",3
"248",2
"249",2
"250",1
"251",2
"252",1
"253",1
"254",1
"255",2
"256",1
"257",1
"258",2
"259",1
"260",3
"261",1
"262",3
"263",3
"264",3
"265",1
"266",1
"267",3
"268",1
"269",1
"270",1
"271",2
"272",3
"273",3
"274",2
"275",1
"276",1
"277",3
"278",2
"279",2
"280",1
"281",1
"282",1
"283",1
"284",1
"285",1
"286",2
"287",1
"288",1
"289",3
"290",3
"291",2
"292",1
"293",3
"294",2
"295",1
"296",1
"297",2
"298",3
"299",1
"300",2
"301",1
"302",2
"303",1
"304",1
"305",3
"306",2
"307",1
"308",2
"309",3
"310",3
"311",1
"312",2
"313",1
"314",1
"315",2
"316",3
"317",2
"318",1
"319",3
"320",3
"321",2
"322",3
"323",2
"324",1
"325",1
"326",1
"327",3
"328",3
"329",2
"330",1
"331",3
"332",3
"333",3
"334",3
"335",1
"336",3
"337",3
"338",1
"339",2
"340",2
"341",3
"342",1
"343",2
"344",3
"345",1
"346",2
"347",1
"348",3
"349",2
"350",1
"351",2
"352",1
"353",2
"354",1
"355",1
"356",1
"357",3
"358",1
"359",3
"360",3
"361",3
"362",3
"363",1
"364",3
"365",3
"366",1
"367",1
"368",3
"369",3
"370",1
"371",2
"372",3
"373",2
"374",1
"375",1
"376",1
"377",3
"378",3
"379",1
"380",1
"381",1
"382",2
"383",1
"384",3
"385",1
"386",1
"387",1
"388",1
"389",1
"390",1
"391",1
"392",3
"393",3
"394",3
"395",1
"396",1
"397",1
"398",1
"399",1
"400",1
"401",2
"402",2
"403",1
"404",3
"405",2
"406",2
"407",1
"408",3
"409",1
"410",2
"411",3
"412",3
"413",1
"414",3
"415",1
"416",1
"417",1
"418",1
"419",3
"420",2
"421",3
"422",1
"423",1
"424",3
"425",1
"426",3
"427",3
"428",1
"429",3
"430",2
"431",1
"432",1
"433",2
"434",1
"435",2
"436",3
"437",3
"438",3
"439",3
"440",2
"441",2
"442",1
"443",1
"444",1
"445",3
"446",1
"447",2
"448",1
"449",3
"450",3
"451",1
"452",1
"453",2
"454",2
"455",3
"456",1
"457",3
"458",1
"459",1
"460",1
"461",3
"462",1
"463",1
"464",1
"465",2
"466",1
"467",1
"468",1
"469",3
"470",3
"471",2
"472",2
"473",1
"474",1
"475",1
"476",3
"477",1
"478",3
"479",1
"480",1
"481",2
"482",1
"483",3
"484",3
"485",3
"486",3
"487",2
"488",2
"489",2
"490",2
"491",2
"492",1
"493",1
"494",1
"495",1
"496",3
"497",2
"498",3
"499",3
"500",3
"501",1
"502",2
"503",1
"504",3
"505",3
"506",3
"507",3
"508",3
"509",1
"510",1
"511",3
"512",2
"513",2
"514",1
"515",3
"516",2
"517",1
"518",2
"519",1
"520",2
"521",3
"522",1
"523",3
"524",1
"525",1
"526",1
"527",2
"528",1
"529",1
"530",3
"531",1
"532",1
"533",1
"534",1
"535",3
"536",1
"537",2
"538",2
"539",3
"540",2
"541",3
"542",1
"543",1
"544",3
"545",1
"546",3
"547",1
"548",3
"549",2
"550",1
"551",1
"552",2
"553",3
"554",2
"555",3
"556",1
"557",1
"558",3
"559",2
"560",2
"561",3
"562",3
"563",2
"564",3
"565",3
"566",1
"567",2
"568",1
"569",3
"570",3
"571",1
"572",2
"573",1
"574",3
"575",3
"576",3
"577",2
"578",2
"579",3
"580",1
"581",1
"582",2
"583",3
"584",3
"585",3
"586",3
"587",2
"588",1
"589",3
"590",1
"591",2
"592",1
"593",1
"594",3
"595",3
"596",3
"597",1
"598",1
"599",3
"600",1
"601",1
"602",1
"603",2
"604",3
"605",1
"606",3
"607",2
"608",3
"609",1
"610",1
"611",1
"612",3
"613",2
"614",3
"615",3
"616",3
"617",2
"618",1
"619",1
"620",2
"621",3
"622",1
"623",1
"624",2
"625",1
"626",1
"627",2
"628",1
"629",3
"630",3
"631",3
"632",3
"633",1
"634",1
"635",1
"636",3
"637",2
"638",1
"639",2
"640",1
"641",1
"642",3
"643",2
"644",2
"645",1
"646",2
"647",2
"648",2
"649",3
"650",1
"651",1
"652",3
"653",3
"654",2
"655",3
"656",3
"657",1
"658",2
"659",1
"660",1
"661",1
"662",1
"663",3
"664",3
"665",2
"666",2
"667",1
"668",1
"669",1
"670",3
"671",1
"672",3
"673",3
"674",3
"675",3
"676",2
"677",2
"678",3
"679",3
"680",3
"681",3
"682",3
"683",3
"684",3
"685",3
"686",2
"687",1
"688",1
"689",1
"690",1
"691",1
"692",1
"693",2
"694",1
"695",3
"696",3
"697",1
"698",2
"699",1
"700",3
"701",3
"702",3
"703",2
"704",3
"705",3
"706",1
"707",3
"708",3
"709",3
"710",1
"711",2
"712",3
"713",1
"714",2
"715",3
"716",1
"717",1
"718",2
"719",2
"720",1
"721",1
"722",1
"723",1
"724",1
"725",1
"726",3
"727",1
"728",1
"729",2
"730",3
"731",2
"732",1
"733",3
"734",1
"735",3
"736",1
"737",1
"738",1
"739",3
"740",3
"741",2
"742",3
"743",3
"744",3
"745",2
"746",2
"747",1
"748",3
"749",3
"750",3
"751",1
"752",3
"753",1
"754",1
"755",3
"756",3
"757",3
"758",2
"759",2
"760",1
"761",1
"762",1
"763",1
"764",3
"765",3
"766",3
"767",3
"768",3
"769",3
"770",3
"771",2
"772",1
"773",3
"774",3
"775",1
"776",1
"777",1
"778",2
"779",1
"780",2
"781",3
"782",3
"783",1
"784",3
"785",3
"786",1
"787",2
"788",1
"789",3
"790",3
"791",3
"792",3
"793",1
"794",3
"795",1
"796",3
"797",2
"798",1
"799",1
"800",1
"801",1
"802",2
"803",2
"804",1
"805",1
"806",2
"807",1
"808",1
"809",1
"810",1
"811",1
"812",2
"813",3
"814",1
"815",1
"816",3
"817",1
"818",2
"819",3
"820",1
"821",1
"822",3
"823",1
"824",2
"825",2
"826",3
"827",3
"828",2
"829",1
"830",1
"831",3
"832",1
"833",3
"834",2
"835",3
"836",1
"837",1
"838",1
"839",3
"840",3
"841",2
"842",1
"843",1
"844",1
"845",1
"846",3
"847",3
"848",1
"849",1
"850",2
"851",3
"852",3
"853",2
"854",1
"855",2
"856",2
"857",3
"858",3
"859",1
"860",2
"861",3
"862",3
"863",2
"864",3
"865",3
"866",1
"867",3
"868",1
"869",1
"870",1
"871",3
"872",3
"873",3
"874",2
"875",3
"876",1
"877",2
"878",2
"879",1
"880",3
"881",2
"882",1
"883",3
"884",3
"885",3
"886",3
"887",3
"888",2
"889",2
"890",1
"891",1
"892",3
"893",3
"894",2
"895",3
"896",3
"897",2
"898",1
"899",2
"900",1
"901",1
"902",1
"903",1
"904",3
"905",2
"906",2
"907",3
"908",2
"909",1
"910",1
"911",3
"912",3
"913",1
"914",3
"915",2
"916",1
"917",3
"918",1
"919",3
"920",1
"921",3
"922",3
"923",2
"924",3
"925",3
"926",2
"927",1
"928",3
"929",3
"930",1
"931",1
"932",1
"933",1
"934",1
"935",2
"936",3
"937",2
"938",3
"939",2
"940",2
"941",3
"942",1
"943",2
"944",1
"945",1
"946",3
"947",2
"948",1
"949",3
"950",3
"951",3
"952",1
"953",2
"954",1
"955",3
"956",2
"957",3
"958",3
"959",1
"960",2
"961",3
"962",2
"963",3
"964",1
"965",2
"966",3
"967",3
"968",2
"969",2
"970",3
"971",1
"972",3
"973",3
"974",2
"975",3
"976",2
"977",3
"978",2
"979",1
"980",3
"981",3
"982",3
"983",2
"984",3
"985",2
"986",3
"987",1
"988",1
"989",3
"990",1
"991",1
"992",2
"993",3
"994",1
"995",1
"996",3
"997",3
"998",2
"999",1
"1000",1
"1001",3
"1002",2
"1003",3
"1004",3
"1005",2
"1006",1
"1007",2
"1008",1
"1009",3
"1010",2
"1011",3
"1012",3
"1013",2
"1014",1
"1015",1
"1016",1
"1017",2
"1018",3
"1019",1
"1020",2
"1021",2
"1022",1
"1023",3
"1024",2
"1025",3
"1026",2
"1027",3
"1028",3
"1029",2
"1030",1
"1031",2
"1032",2
"1033",2
"1034",1
"1035",3
"1036",2
"1037",2
"1038",2
"1039",2
"1040",1
"1041",3
"1042",3
"1043",2
"1044",1
"1045",2
"1046",1
"1047",2
"1048",3
"1049",3
"1050",1
"1051",2
"1052",1
"1053",3
"1054",1
"1055",3
"1056",1
"1057",1
"1058",1
"1059",3
"1060",2
"1061",2
"1062",3
"1063",3
"1064",1
"1065",3
"1066",1
"1067",1
"1068",2
"1069",2
"1070",3
"1071",1
"1072",3
"1073",1
"1074",2
"1075",1
"1076",2
"1077",3
"1078",3
"1079",1
"1080",3
"1081",2
"1082",2
"1083",2
"1084",1
"1085",1
"1086",2
"1087",3
"1088",3
"1089",1
"1090",2
"1091",1
"1092",2
"1093",1
"1094",1
"1095",1
"1096",1
"1097",3
"1098",1
"1099",3
"1100",3
"1101",3
"1102",3
"1103",1
"1104",2
"1105",2
"1106",2
"1107",2
"1108",2
"1109",2
"1110",3
"1111",1
"1112",1
"1113",1
"1114",1
"1115",3
"1116",1
"1117",3
"1118",1
"1119",1
"1120",3
"1121",1
"1122",2
"1123",3
"1124",2
"1125",3
"1126",3
"1127",1
"1128",2
"1129",1
"1130",3
"1131",2
"1132",1
"1133",1
"1134",1
"1135",1
"1136",1
"1137",3
"1138",3
"1139",3
"1140",2
"1141",3
"1142",3
"1143",1
"1144",3
"1145",2
"1146",3
"1147",1
"1148",3
"1149",1
"1150",3
"1151",1
"1152",1
"1153",3
"1154",3
"1155",3
"1156",3
"1157",1
"1158",3
"1159",1
"1160",3
"1161",3
"1162",1
"1163",3
"1164",2
"1165",2
"1166",1
"1167",1
"1168",3
"1169",1
"1170",1
"1171",1
"1172",3
"1173",3
"1174",1
"1175",1
"1176",3
"1177",3
"1178",1
"1179",2
"1180",1
"1181",1
"1182",1
"1183",3
"1184",1
"1185",3
"1186",1
"1187",3
"1188",3
"1189",3
"1190",1
"1191",3
"1192",3
"1193",3
"1194",1
"1195",1
"1196",1
"1197",3
"1198",1
"1199",1
"1200",3
"1201",3
"1202",1
"1203",3
"1204",3
"1205",3
"1206",3
"1207",1
"1208",3
"1209",2
"1210",3
"1211",2
"1212",3
"1213",3
"1214",1
"1215",1
"1216",3
"1217",1
"1218",3
"1219",2
"1220",3
"1221",2
"1222",2
"1223",1
"1224",3
"1225",1
"1226",3
"1227",1
"1228",1
"1229",1
"1230",2
"1231",1
"1232",3
"1233",1
"1234",3
"1235",1
"1236",3
"1237",1
"1238",1
"1239",3
"1240",1
"1241",2
"1242",2
"1243",2
"1244",1
"1245",1
"1246",3
"1247",1
"1248",2
"1249",1
"1250",1
"1251",1
"1252",2
"1253",3
"1254",3
"1255",1
"1256",3
"1257",2
"1258",3
"1259",1
"1260",2
"1261",3
"1262",3
"1263",3
"1264",1
"1265",3
"1266",3
"1267",3
"1268",3
"1269",1
"1270",1
"1271",3
"1272",2
"1273",3
"1274",3
"1275",1
"1276",1
"1277",1
"1278",1
"1279",1
"1280",3
"1281",3
"1282",2
"1283",1
"1284",1
"1285",1
"1286",3
"1287",2
"1288",1
"1289",2
"1290",1
"1291",1
"1292",3
"1293",1
"1294",1
"1295",1
"1296",3
"1297",1
"1298",1
"1299",3
"1300",1
"1301",3
"1302",1
"1303",1
"1304",3
"1305",1
"1306",3
"1307",1
"1308",1
"1309",1
"1310",2
"1311",1
"1312",3
"1313",1
"1314",2
"1315",1
"1316",1
"1317",1
"1318",1
"1319",3
"1320",3
"1321",1
"1322",3
"1323",1
"1324",3
"1325",2
"1326",3
"1327",1
"1328",2
"1329",3
"1330",1
"1331",3
"1332",1
"1333",3
"1334",1
"1335",3
"1336",2
"1337",1
"1338",3
"1339",3
"1340",3
"1341",1
"1342",1
"1343",3
"1344",1
"1345",3
"1346",1
"1347",3
"1348",1
"1349",1
"1350",2
"1351",2
"1352",3
"1353",1
"1354",1
"1355",1
"1356",3
"1357",1
"1358",1
"1359",1
"1360",3
"1361",1
"1362",1
"1363",3
"1364",1
"1365",3
"1366",3
"1367",1
"1368",1
"1369",3
"1370",3
"1371",3
"1372",1
"1373",1
"1374",3
"1375",3
"1376",2
"1377",2
"1378",1
"1379",1
"1380",3
"1381",3
"1382",2
"1383",3
"1384",1
"1385",3
"1386",3
"1387",1
"1388",1
"1389",1
"1390",1
"1391",1
"1392",1
"1393",3
"1394",3
"1395",3
"1396",1
"1397",1
"1398",1
"1399",2
"1400",1
"1401",1
"1402",3
"1403",1
"1404",1
"1405",1
"1406",3
"1407",3
"1408",2
"1409",3
"1410",1
"1411",1
"1412",1
"1413",1
"1414",1
"1415",3
"1416",3
"1417",2
"1418",3
"1419",1
"1420",1
"1421",3
"1422",1
"1423",2
"1424",1
"1425",3
"1426",3
"1427",3
"1428",2
"1429",3
"1430",1
"1431",3
"1432",3
"1433",1
"1434",3
"1435",2
"1436",2
"1437",3
"1438",3
"1439",1
"1440",1
"1441",3
"1442",3
"1443",2
"1444",3
"1445",3
"1446",1
"1447",3
"1448",3
"1449",3
"1450",1
"1451",3
"1452",2
"1453",1
"1454",2
"1455",1
"1456",2
"1457",2
"1458",3
"1459",3
"1460",1
"1461",1
"1462",3
"1463",1
"1464",3
"1465",1
"1466",1
"1467",1
"1468",1
"1469",2
"1470",2
"1471",1
"1472",3
"1473",2
"1474",2
"1475",2
"1476",1
"1477",2
"1478",2
"1479",2
"1480",1
"1481",1
"1482",1
"1483",1
"1484",3
"1485",2
"1486",3
"1487",3
"1488",1
"1489",2
"1490",2
"1491",1
"1492",3
"1493",1
"1494",3
"1495",3
"1496",3
"1497",2
"1498",3
"1499",1
"1500",1
"1501",1
"1502",1
"1503",2
"1504",1
"1505",1
"1506",2
"1507",2
"1508",1
"1509",2
"1510",1
"1511",1
"1512",1
"1513",1
"1514",1
"1515",2
"1516",3
"1517",3
"1518",1
"1519",3
"1520",1
"1521",2
"1522",3
"1523",1
"1524",1
"1525",3
"1526",1
"1527",2
"1528",3
"1529",2
"1530",1
"1531",2
"1532",1
"1533",3
"1534",1
"1535",3
"1536",1
"1537",2
"1538",2
"1539",3
"1540",3
"1541",3
"1542",1
"1543",3
"1544",2
"1545",2
"1546",3
"1547",3
"1548",2
"1549",1
"1550",3
"1551",2
"1552",1
"1553",1
"1554",3
"1555",2
"1556",1
"1557",1
"1558",1
"1559",3
"1560",3
"1561",2
"1562",1
"1563",3
"1564",3
"1565",1
"1566",1
"1567",1
"1568",1
"1569",2
"1570",3
"1571",3
"1572",3
"1573",2
"1574",1
"1575",2
"1576",3
"1577",2
"1578",3
"1579",2
"1580",1
"1581",1
"1582",2
"1583",3
"1584",3
"1585",3
"1586",1
"1587",1
"1588",1
"1589",3
"1590",2
"1591",1
"1592",1
"1593",1
"1594",3
"1595",3
"1596",2
"1597",1
"1598",1
"1599",2
"1600",2
"1601",1
"1602",2
"1603",2
"1604",1
"1605",3
"1606",1
"1607",3
"1608",1
"1609",1
"1610",3
"1611",2
"1612",3
"1613",1
"1614",2
"1615",2
"1616",3
"1617",3
"1618",1
"1619",2
"1620",3
"1621",1
"1622",1
"1623",1
"1624",3
"1625",1
"1626",1
"1627",3
"1628",2
"1629",3
"1630",2
"1631",1
"1632",2
"1633",1
"1634",3
"1635",1
"1636",1
"1637",3
"1638",3
"1639",2
"1640",3
"1641",2
"1642",3
"1643",2
"1644",2
"1645",3
"1646",1
"1647",2
"1648",1
"1649",3
"1650",3
"1651",2
"1652",2
"1653",2
"1654",1
"1655",1
"1656",1
"1657",1
"1658",3
"1659",1
"1660",2
"1661",1
"1662",3
"1663",3
"1664",1
"1665",1
"1666",2
"1667",3
"1668",2
"1669",2
"1670",3
"1671",2
"1672",1
"1673",2
"1674",3
"1675",2
"1676",2
"1677",3
"1678",3
"1679",2
"1680",3
"1681",2
"1682",1
"1683",1
"1684",1
"1685",3
"1686",1
"1687",1
"1688",1
"1689",1
"1690",1
"1691",3
"1692",3
"1693",3
"1694",1
"1695",3
"1696",3
"1697",3
"1698",2
"1699",3
"1700",2
"1701",2
"1702",2
"1703",2
"1704",2
"1705",1
"1706",1
"1707",3
"1708",1
"1709",1
"1710",1
"1711",3
"1712",3
