"","x"
"1",2
"2",1
"3",2
"4",2
"5",5
"6",1
"7",2
"8",1
"9",5
"10",3
"11",1
"12",3
"13",1
"14",5
"15",4
"16",4
"17",5
"18",3
"19",5
"20",5
"21",3
"22",1
"23",5
"24",1
"25",5
"26",5
"27",3
"28",1
"29",2
"30",3
"31",4
"32",3
"33",5
"34",4
"35",1
"36",4
"37",5
"38",3
"39",1
"40",4
"41",2
"42",4
"43",1
"44",4
"45",5
"46",1
"47",5
"48",1
"49",1
"50",3
"51",1
"52",4
"53",5
"54",3
"55",5
"56",5
"57",2
"58",3
"59",4
"60",1
"61",1
"62",3
"63",1
"64",5
"65",1
"66",1
"67",1
"68",1
"69",1
"70",5
"71",1
"72",1
"73",1
"74",5
"75",1
"76",2
"77",4
"78",2
"79",5
"80",1
"81",4
"82",2
"83",5
"84",4
"85",3
"86",5
"87",3
"88",1
"89",1
"90",5
"91",5
"92",4
"93",5
"94",3
"95",3
"96",4
"97",5
"98",5
"99",4
"100",1
"101",1
"102",3
"103",1
"104",5
"105",1
"106",1
"107",3
"108",5
"109",1
"110",5
"111",3
"112",4
"113",1
"114",1
"115",1
"116",5
"117",1
"118",3
"119",5
"120",1
"121",3
"122",1
"123",5
"124",5
"125",5
"126",4
"127",3
"128",3
"129",5
"130",3
"131",4
"132",1
"133",5
"134",5
"135",5
"136",5
"137",1
"138",3
"139",1
"140",1
"141",1
"142",4
"143",1
"144",4
"145",2
"146",3
"147",4
"148",1
"149",4
"150",5
"151",4
"152",3
"153",3
"154",2
"155",1
"156",5
"157",5
"158",5
"159",5
"160",5
"161",3
"162",5
"163",1
"164",4
"165",1
"166",3
"167",1
"168",5
"169",1
"170",1
"171",5
"172",1
"173",5
"174",5
"175",3
"176",4
"177",5
"178",3
"179",4
"180",3
"181",5
"182",1
"183",5
"184",3
"185",1
"186",4
"187",5
"188",5
"189",3
"190",5
"191",3
"192",1
"193",3
"194",1
"195",5
"196",5
"197",3
"198",5
"199",5
"200",1
"201",1
"202",3
"203",5
"204",3
"205",3
"206",4
"207",1
"208",1
"209",3
"210",3
"211",4
"212",3
"213",3
"214",5
"215",3
"216",4
"217",5
"218",1
"219",3
"220",4
"221",5
"222",2
"223",4
"224",1
"225",5
"226",3
"227",5
"228",1
"229",4
"230",1
"231",2
"232",1
"233",3
"234",5
"235",4
"236",3
"237",2
"238",5
"239",3
"240",1
"241",3
"242",3
"243",1
"244",2
"245",4
"246",1
"247",4
"248",1
"249",1
"250",2
"251",3
"252",4
"253",5
"254",1
"255",5
"256",4
"257",4
"258",1
"259",5
"260",1
"261",3
"262",2
"263",1
"264",5
"265",2
"266",1
"267",5
"268",3
"269",5
"270",1
"271",1
"272",5
"273",5
"274",4
"275",5
"276",4
"277",5
"278",3
"279",5
"280",1
"281",3
"282",2
"283",2
"284",5
"285",1
"286",3
"287",3
"288",1
"289",5
"290",1
"291",3
"292",5
"293",5
"294",5
"295",4
"296",1
"297",5
"298",5
"299",4
"300",1
"301",4
"302",5
"303",2
"304",5
"305",5
"306",5
"307",2
"308",1
"309",2
"310",1
"311",1
"312",1
"313",3
"314",4
"315",1
"316",4
"317",3
"318",1
"319",5
"320",3
"321",5
"322",5
"323",1
"324",2
"325",5
"326",1
"327",5
"328",1
"329",5
"330",1
"331",5
"332",4
"333",5
"334",1
"335",1
"336",1
"337",5
"338",1
"339",4
"340",5
"341",5
"342",5
"343",2
"344",4
"345",1
"346",3
"347",3
"348",5
"349",5
"350",4
"351",4
"352",5
"353",2
"354",4
"355",1
"356",1
"357",1
"358",5
"359",3
"360",1
"361",1
"362",4
"363",2
"364",1
"365",2
"366",3
"367",1
"368",3
"369",1
"370",1
"371",1
"372",1
"373",5
"374",2
"375",5
"376",1
"377",4
"378",5
"379",4
"380",1
"381",2
"382",4
"383",4
"384",5
"385",5
"386",2
"387",3
"388",2
"389",2
"390",2
"391",2
"392",4
"393",5
"394",1
"395",1
"396",5
"397",3
"398",3
"399",5
"400",1
"401",4
"402",4
"403",5
"404",1
"405",1
"406",1
"407",5
"408",4
"409",2
"410",4
"411",5
"412",2
"413",5
"414",5
"415",1
"416",3
"417",2
"418",2
"419",4
"420",1
"421",4
"422",1
"423",3
"424",5
"425",5
"426",2
"427",5
"428",3
"429",5
"430",2
"431",2
"432",5
"433",4
"434",2
"435",1
"436",3
"437",4
"438",3
"439",5
"440",1
"441",1
"442",1
"443",1
"444",2
"445",2
"446",5
"447",2
"448",3
"449",5
"450",3
"451",3
"452",5
"453",5
"454",4
"455",4
"456",5
"457",5
"458",2
"459",5
"460",2
"461",3
"462",5
"463",1
"464",5
"465",5
"466",1
"467",3
"468",4
"469",2
"470",1
"471",4
"472",1
"473",2
"474",3
"475",1
"476",1
"477",1
"478",5
"479",4
"480",4
"481",2
"482",1
"483",5
"484",1
"485",1
"486",3
"487",4
"488",3
"489",5
"490",1
"491",5
"492",3
"493",1
"494",3
"495",5
"496",1
"497",4
"498",1
"499",2
"500",4
"501",5
"502",3
"503",5
"504",3
"505",4
"506",1
"507",5
"508",1
"509",3
"510",1
"511",4
"512",3
"513",3
"514",3
"515",1
"516",4
"517",3
"518",4
"519",5
"520",5
"521",5
"522",1
"523",3
"524",3
"525",1
"526",1
"527",3
"528",3
"529",1
"530",5
"531",1
"532",1
"533",5
"534",1
"535",1
"536",4
"537",5
"538",4
"539",3
"540",4
"541",5
"542",2
"543",3
"544",1
"545",3
"546",1
"547",1
"548",3
"549",5
"550",1
"551",1
"552",1
"553",5
"554",5
"555",3
"556",5
"557",1
"558",5
"559",3
"560",1
"561",5
"562",1
"563",3
"564",1
"565",3
"566",3
"567",5
"568",5
"569",1
"570",1
"571",4
"572",1
"573",1
"574",5
"575",3
"576",2
"577",1
"578",5
"579",5
"580",1
"581",5
"582",5
"583",4
"584",4
"585",1
"586",1
"587",1
"588",3
"589",3
"590",3
"591",5
"592",4
"593",4
"594",4
"595",1
"596",2
"597",3
"598",1
"599",3
"600",5
"601",3
"602",5
"603",4
"604",1
"605",1
"606",4
"607",1
"608",2
"609",3
"610",4
"611",2
"612",2
"613",4
"614",4
"615",3
"616",1
"617",3
"618",4
"619",1
"620",2
"621",4
"622",4
"623",1
"624",5
"625",5
"626",3
"627",4
"628",4
"629",1
"630",1
"631",1
"632",2
"633",5
"634",4
"635",1
"636",3
"637",1
"638",4
"639",3
"640",5
"641",3
"642",5
"643",3
"644",1
"645",3
"646",1
"647",4
"648",1
"649",3
"650",3
"651",1
"652",1
"653",3
"654",1
"655",1
"656",5
"657",4
"658",5
"659",5
"660",3
"661",2
"662",4
"663",4
"664",2
"665",5
"666",3
"667",1
"668",1
"669",3
"670",1
"671",5
"672",3
"673",1
"674",5
"675",1
"676",2
"677",1
"678",3
"679",4
"680",3
"681",1
"682",3
"683",2
"684",1
"685",5
"686",4
"687",3
"688",3
"689",1
"690",3
"691",1
"692",5
"693",4
"694",1
"695",5
"696",3
"697",1
"698",4
"699",1
"700",5
"701",2
"702",1
"703",4
"704",5
"705",2
"706",1
"707",5
"708",5
"709",2
"710",4
"711",3
"712",3
"713",3
"714",3
"715",5
"716",1
"717",3
"718",4
"719",1
"720",4
"721",1
"722",4
"723",3
"724",4
"725",3
"726",3
"727",2
"728",3
"729",3
"730",3
"731",1
"732",4
"733",1
"734",4
"735",1
"736",1
"737",2
"738",4
"739",5
"740",1
"741",5
"742",1
"743",4
"744",5
"745",5
"746",3
"747",5
"748",3
"749",4
"750",5
"751",1
"752",2
"753",3
"754",1
"755",4
"756",4
"757",1
"758",3
"759",3
"760",1
"761",5
"762",2
"763",3
"764",5
"765",3
"766",3
"767",3
"768",1
"769",1
"770",1
"771",4
"772",1
"773",3
"774",1
"775",2
"776",1
"777",5
"778",5
"779",5
"780",4
"781",5
"782",5
"783",1
"784",2
"785",4
"786",2
"787",3
"788",1
"789",3
"790",5
"791",1
"792",1
"793",4
"794",2
"795",5
"796",4
"797",4
"798",5
"799",1
"800",1
"801",3
"802",4
"803",5
"804",4
"805",1
"806",5
"807",2
"808",3
"809",2
"810",1
"811",1
"812",4
"813",3
"814",4
"815",5
"816",3
"817",1
"818",4
"819",4
"820",3
"821",2
"822",2
"823",1
"824",3
"825",1
"826",5
"827",2
"828",3
"829",5
"830",5
"831",3
"832",5
"833",2
"834",5
"835",5
"836",3
"837",2
"838",3
"839",5
"840",1
"841",1
"842",2
"843",3
"844",3
"845",1
"846",1
"847",5
"848",5
"849",3
"850",5
"851",4
"852",2
"853",3
"854",4
"855",1
"856",1
"857",1
"858",1
"859",1
"860",1
"861",3
"862",5
"863",3
"864",3
"865",5
"866",3
"867",4
"868",1
"869",1
"870",1
"871",1
"872",3
"873",3
"874",1
"875",5
"876",1
"877",5
"878",3
"879",1
"880",3
"881",4
"882",5
"883",2
"884",2
"885",1
"886",3
"887",3
"888",3
"889",4
"890",1
"891",3
"892",2
"893",1
"894",2
"895",5
"896",4
"897",2
"898",4
"899",4
"900",4
"901",5
"902",1
"903",2
"904",5
"905",3
"906",1
"907",4
"908",5
"909",3
"910",1
"911",2
"912",1
"913",5
"914",3
"915",2
"916",4
"917",4
"918",1
"919",3
"920",3
"921",1
"922",3
"923",3
"924",5
"925",4
"926",3
"927",1
"928",4
"929",3
"930",4
"931",2
"932",1
"933",1
"934",1
"935",3
"936",5
"937",3
"938",5
"939",1
"940",4
"941",3
"942",5
"943",5
"944",5
"945",1
"946",2
"947",5
"948",5
"949",5
"950",3
"951",1
"952",1
"953",1
"954",3
"955",1
"956",2
"957",1
"958",1
"959",1
"960",3
"961",1
"962",3
"963",3
"964",1
"965",3
"966",1
"967",4
"968",1
"969",5
"970",4
"971",3
"972",1
"973",3
"974",2
"975",5
"976",3
"977",5
"978",1
"979",2
"980",5
"981",3
"982",2
"983",3
"984",1
"985",1
"986",4
"987",4
"988",4
"989",1
"990",4
"991",1
"992",5
"993",1
"994",1
"995",4
"996",3
"997",3
"998",3
"999",3
"1000",5
"1001",4
"1002",5
"1003",1
"1004",1
"1005",2
"1006",3
"1007",3
"1008",3
"1009",5
"1010",2
"1011",3
"1012",2
"1013",4
"1014",5
"1015",5
"1016",1
"1017",4
"1018",3
"1019",3
"1020",2
"1021",5
"1022",1
"1023",3
"1024",5
"1025",5
"1026",1
"1027",5
"1028",2
"1029",1
"1030",5
"1031",3
"1032",3
"1033",1
"1034",5
"1035",4
"1036",4
"1037",1
"1038",1
"1039",3
"1040",2
"1041",1
"1042",4
"1043",1
"1044",3
"1045",3
"1046",3
"1047",3
"1048",4
"1049",1
"1050",3
"1051",2
"1052",2
"1053",3
"1054",1
"1055",1
"1056",1
"1057",3
"1058",3
"1059",3
"1060",1
"1061",4
"1062",5
"1063",5
"1064",1
"1065",1
"1066",5
"1067",3
"1068",5
"1069",1
"1070",1
"1071",3
"1072",4
"1073",5
"1074",4
"1075",3
"1076",4
"1077",3
"1078",5
"1079",2
"1080",5
"1081",1
"1082",4
"1083",1
"1084",1
"1085",3
"1086",4
"1087",1
"1088",1
"1089",3
"1090",5
"1091",3
"1092",5
"1093",2
"1094",3
"1095",3
"1096",4
"1097",1
"1098",4
"1099",3
"1100",1
"1101",1
"1102",5
"1103",4
"1104",4
"1105",1
"1106",4
"1107",5
"1108",5
"1109",3
"1110",1
"1111",5
"1112",2
"1113",3
"1114",1
"1115",1
"1116",3
"1117",3
"1118",5
"1119",1
"1120",1
"1121",1
"1122",1
"1123",5
"1124",5
"1125",5
"1126",3
"1127",4
"1128",5
"1129",5
"1130",4
"1131",5
"1132",5
"1133",1
"1134",5
"1135",2
"1136",1
"1137",1
"1138",1
"1139",3
"1140",1
"1141",4
"1142",2
"1143",3
"1144",1
"1145",2
"1146",2
"1147",5
"1148",5
"1149",2
"1150",2
"1151",4
"1152",3
"1153",3
"1154",5
"1155",5
"1156",3
"1157",4
"1158",2
"1159",1
"1160",5
"1161",3
"1162",5
"1163",5
"1164",5
"1165",1
"1166",5
"1167",4
"1168",2
"1169",5
"1170",3
"1171",1
"1172",2
"1173",1
"1174",5
"1175",2
"1176",3
"1177",3
"1178",1
"1179",1
"1180",3
"1181",4
"1182",1
"1183",4
"1184",3
"1185",1
"1186",3
"1187",3
"1188",4
"1189",1
"1190",5
"1191",3
"1192",4
"1193",5
"1194",4
"1195",1
"1196",1
"1197",1
"1198",4
"1199",1
"1200",3
"1201",2
"1202",5
"1203",1
"1204",1
"1205",3
"1206",1
"1207",4
"1208",1
"1209",5
"1210",4
"1211",5
"1212",3
"1213",1
"1214",4
"1215",5
"1216",1
"1217",5
"1218",3
"1219",4
"1220",3
"1221",3
"1222",1
"1223",2
"1224",3
"1225",3
"1226",1
"1227",4
"1228",1
"1229",5
"1230",5
"1231",5
"1232",2
"1233",1
"1234",4
"1235",5
"1236",1
"1237",3
"1238",1
"1239",1
"1240",5
"1241",5
"1242",1
"1243",5
"1244",1
"1245",5
"1246",3
"1247",5
"1248",1
"1249",4
"1250",1
"1251",2
"1252",1
"1253",1
"1254",1
"1255",1
"1256",1
"1257",4
"1258",4
"1259",1
"1260",1
"1261",5
"1262",5
"1263",1
"1264",4
"1265",3
"1266",4
"1267",4
"1268",2
"1269",1
"1270",4
"1271",1
"1272",4
"1273",3
"1274",2
"1275",1
"1276",5
"1277",3
"1278",5
"1279",3
"1280",5
"1281",4
"1282",1
"1283",1
"1284",3
"1285",2
"1286",1
"1287",1
"1288",1
"1289",1
"1290",3
"1291",5
"1292",3
"1293",5
"1294",3
"1295",5
"1296",5
"1297",5
"1298",1
"1299",1
"1300",1
"1301",5
"1302",3
"1303",4
"1304",5
"1305",1
"1306",1
"1307",3
"1308",1
"1309",3
"1310",4
"1311",1
"1312",5
"1313",3
"1314",5
"1315",5
"1316",4
"1317",3
"1318",5
"1319",3
"1320",5
"1321",5
"1322",2
"1323",5
"1324",2
"1325",5
"1326",1
"1327",5
"1328",1
"1329",3
"1330",4
"1331",1
"1332",1
"1333",5
"1334",3
"1335",5
"1336",4
"1337",3
"1338",2
"1339",1
"1340",3
"1341",4
"1342",3
"1343",1
"1344",4
"1345",5
"1346",1
"1347",2
"1348",5
"1349",4
"1350",2
"1351",1
"1352",4
"1353",1
"1354",1
"1355",5
"1356",3
"1357",1
"1358",3
"1359",5
"1360",5
"1361",5
"1362",3
"1363",5
"1364",4
"1365",5
"1366",3
"1367",5
"1368",3
"1369",4
"1370",1
"1371",5
"1372",3
"1373",1
"1374",2
"1375",5
"1376",1
"1377",3
"1378",1
"1379",4
"1380",4
"1381",5
"1382",4
"1383",3
"1384",1
"1385",1
"1386",3
"1387",3
"1388",4
"1389",1
"1390",1
"1391",3
"1392",3
"1393",1
"1394",1
"1395",1
"1396",4
"1397",4
"1398",5
"1399",1
"1400",5
"1401",3
"1402",1
"1403",3
"1404",1
"1405",5
"1406",4
"1407",2
"1408",1
"1409",5
"1410",1
"1411",3
"1412",4
"1413",5
"1414",2
"1415",2
"1416",4
"1417",4
"1418",1
"1419",1
"1420",5
"1421",4
"1422",5
"1423",4
"1424",3
"1425",5
"1426",1
"1427",3
"1428",1
"1429",5
"1430",1
"1431",3
"1432",3
"1433",1
"1434",4
"1435",4
"1436",2
"1437",1
"1438",5
"1439",3
"1440",3
"1441",4
"1442",1
"1443",3
"1444",2
"1445",1
"1446",5
"1447",2
"1448",5
"1449",1
"1450",5
"1451",5
"1452",5
"1453",4
"1454",2
"1455",2
"1456",3
"1457",1
"1458",2
"1459",1
"1460",2
"1461",1
"1462",1
"1463",3
"1464",5
"1465",4
"1466",1
"1467",5
"1468",5
"1469",3
"1470",4
"1471",1
"1472",2
"1473",3
"1474",3
"1475",5
"1476",1
"1477",5
"1478",1
"1479",1
"1480",4
"1481",2
"1482",1
"1483",3
"1484",5
"1485",1
"1486",1
"1487",3
"1488",2
"1489",2
"1490",1
"1491",2
"1492",1
"1493",1
"1494",5
"1495",3
"1496",3
"1497",2
"1498",3
"1499",5
"1500",1
"1501",3
"1502",3
"1503",4
"1504",1
"1505",4
"1506",3
"1507",5
"1508",3
"1509",1
"1510",2
"1511",3
"1512",3
"1513",4
"1514",4
"1515",1
"1516",3
"1517",3
"1518",3
"1519",1
"1520",4
"1521",1
"1522",3
"1523",5
"1524",1
"1525",5
"1526",1
"1527",3
"1528",4
"1529",5
"1530",4
"1531",4
"1532",3
"1533",1
"1534",1
"1535",1
